\relax 
\providecommand\babel@aux[2]{}
\@nameuse{bbl@beforestart}
\catcode `"\active 
\babel@aux{russian}{}
\@writefile{toc}{\contentsline {section}{\numberline {1}Формулировка задачи}{2}{}\protected@file@percent }
\@writefile{toc}{\contentsline {section}{\numberline {2}Алгоритм метода Гаусса и условие его применимости}{2}{}\protected@file@percent }
\@writefile{toc}{\contentsline {subsection}{\numberline {2.1}Условие применимости}{2}{}\protected@file@percent }
\@writefile{toc}{\contentsline {subsection}{\numberline {2.2}Алгоритм}{2}{}\protected@file@percent }
\@writefile{toc}{\contentsline {section}{\numberline {3}Предварительный анализ задачи}{3}{}\protected@file@percent }
\@writefile{toc}{\contentsline {section}{\numberline {4}Проверка условий применимости}{3}{}\protected@file@percent }
\@writefile{toc}{\contentsline {section}{\numberline {5}Тестовый пример применения метода Гаусса}{3}{}\protected@file@percent }
\@writefile{toc}{\contentsline {section}{\numberline {6}Вычисляющая программа}{4}{}\protected@file@percent }
\@writefile{toc}{\contentsline {section}{\numberline {7}Численный анализ метода Гаусса}{5}{}\protected@file@percent }
\@writefile{lof}{\contentsline {figure}{\numberline {1}{\ignorespaces Зависимость ошибки от размера числа обусловленности}}{5}{}\protected@file@percent }
\@writefile{lof}{\contentsline {figure}{\numberline {2}{\ignorespaces Зависимость ошибки вычисления от заранее введённой ошибки}}{6}{}\protected@file@percent }
\@writefile{toc}{\contentsline {section}{\numberline {8}Вывод}{6}{}\protected@file@percent }
\gdef \@abspage@last{7}
