43.234331643780934 -10.258794237120362 17.553807853014050 -1.277268848747672 22.765022925717830 1.219790244760081 16.922982356639551 -0.826379833162853 8.355969357311917 -1.141570337606304 
-10.258794237120362 49.772246725986726 10.711457080431659 10.167140919511741 -5.016085100987859 3.500434631490171 10.256862969392047 -1.399096627568355 5.972613257164972 10.184479618167680 
17.553807853014050 10.711457080431659 57.274570885629764 6.294539922127544 -3.550545473831751 0.608547342746483 1.057731981071430 -4.147665714285583 13.132012591639622 9.666177588060565 
-1.277268848747669 10.167140919511741 6.294539922127544 50.062080484182367 19.267980372145168 15.294919942098602 -11.235900941820006 1.101463678251126 10.334616296261464 -10.892136072489006 
22.765022925717830 -5.016085100987859 -3.550545473831746 19.267980372145171 54.124556393621056 3.150290335771461 3.803591095321070 4.100270271822325 9.744400788582139 -3.922126977433595 
1.219790244760081 3.500434631490173 0.608547342746486 15.294919942098602 3.150290335771458 58.666360403371641 5.525688235305957 9.568910294178149 2.332409332224786 -7.305531217742084 
16.922982356639551 10.256862969392047 1.057731981071431 -11.235900941820010 3.803591095321068 5.525688235305957 66.472501938707708 0.150951578455436 -11.258706544529282 12.410281675247520 
-0.826379833162851 -1.399096627568353 -4.147665714285583 1.101463678251127 4.100270271822324 9.568910294178147 0.150951578455437 55.119848536227529 6.287649342892595 -0.252977328186128 
8.355969357311913 5.972613257164974 13.132012591639629 10.334616296261460 9.744400788582135 2.332409332224785 -11.258706544529288 6.287649342892597 63.734860981695618 12.943156629494860 
-1.141570337606305 10.184479618167678 9.666177588060563 -10.892136072489009 -3.922126977433593 -7.305531217742085 12.410281675247514 -0.252977328186125 12.943156629494860 51.538642006796742 
;