\relax 
\providecommand\babel@aux[2]{}
\@nameuse{bbl@beforestart}
\catcode `"\active 
\selectlanguage *{russian}
\@writefile{toc}{\selectlanguage *{russian}}
\@writefile{lof}{\selectlanguage *{russian}}
\@writefile{lot}{\selectlanguage *{russian}}
\selectlanguage *{russian}
\@writefile{toc}{\selectlanguage *{russian}}
\@writefile{lof}{\selectlanguage *{russian}}
\@writefile{lot}{\selectlanguage *{russian}}
\@writefile{toc}{\contentsline {section}{\numberline {1}Формулировка задачи}{2}{}\protected@file@percent }
\@writefile{toc}{\contentsline {section}{\numberline {2}Формализация задачи}{2}{}\protected@file@percent }
\@writefile{toc}{\contentsline {section}{\numberline {3}Алгоритм и условия применимости}{2}{}\protected@file@percent }
\@writefile{toc}{\contentsline {subsection}{\numberline {3.1}Итоговый алгоритм}{5}{}\protected@file@percent }
\@writefile{toc}{\contentsline {subsection}{\numberline {3.2}Условия применимости}{5}{}\protected@file@percent }
\@writefile{toc}{\contentsline {section}{\numberline {4}Проверка условий применимости}{5}{}\protected@file@percent }
\@writefile{toc}{\contentsline {section}{\numberline {5}Тестовый пример}{5}{}\protected@file@percent }
\@writefile{toc}{\contentsline {section}{\numberline {6}Предварительный анализ задачи}{6}{}\protected@file@percent }
\@writefile{lof}{\contentsline {figure}{\numberline {1}{\ignorespaces График решения на промежутке от 1 до 5}}{7}{}\protected@file@percent }
\@writefile{toc}{\contentsline {section}{\numberline {7}Численный анализ}{8}{}\protected@file@percent }
\@writefile{lof}{\contentsline {figure}{\numberline {2}{\ignorespaces Абсолютная погрешность в каждой точке разбиения при фиксированной точности}}{8}{}\protected@file@percent }
\newlabel{fig:fig1}{{2}{8}}
\@writefile{lof}{\contentsline {figure}{\numberline {3}{\ignorespaces Абсолютная погрешность в каждой точке разбиения при фиксированной точности}}{9}{}\protected@file@percent }
\@writefile{lof}{\contentsline {figure}{\numberline {4}{\ignorespaces График зависимости ошибки от внесённой ошибки}}{10}{}\protected@file@percent }
\@writefile{lof}{\contentsline {figure}{\numberline {5}{\ignorespaces График зависимости количества узлов разбиения и итоговой ошибки метода}}{11}{}\protected@file@percent }
\@writefile{lof}{\contentsline {figure}{\numberline {6}{\ignorespaces График зависимости шага разбиения и итоговой ошибки метода}}{12}{}\protected@file@percent }
\@writefile{toc}{\contentsline {section}{\numberline {8}Вывод}{12}{}\protected@file@percent }
\gdef \@abspage@last{13}
