\relax 
\providecommand\babel@aux[2]{}
\@nameuse{bbl@beforestart}
\catcode `"\active 
\selectlanguage *{russian}
\@writefile{toc}{\selectlanguage *{russian}}
\@writefile{lof}{\selectlanguage *{russian}}
\@writefile{lot}{\selectlanguage *{russian}}
\selectlanguage *{russian}
\@writefile{toc}{\selectlanguage *{russian}}
\@writefile{lof}{\selectlanguage *{russian}}
\@writefile{lot}{\selectlanguage *{russian}}
\@writefile{toc}{\contentsline {section}{\numberline {1}Формулировка задачи}{2}{}\protected@file@percent }
\@writefile{toc}{\contentsline {section}{\numberline {2}Алгоритм метода и условие его применимости}{2}{}\protected@file@percent }
\@writefile{toc}{\contentsline {subsection}{\numberline {2.1}Построение сеток}{2}{}\protected@file@percent }
\@writefile{toc}{\contentsline {subsubsection}{\numberline {2.1.1}Разбиение Чебышева}{2}{}\protected@file@percent }
\@writefile{toc}{\contentsline {subsubsection}{\numberline {2.1.2}Равномерное разбиение}{2}{}\protected@file@percent }
\@writefile{toc}{\contentsline {subsection}{\numberline {2.2}Алгоритм}{2}{}\protected@file@percent }
\@writefile{toc}{\contentsline {subsection}{\numberline {2.3}Условия применимости.}{4}{}\protected@file@percent }
\@writefile{toc}{\contentsline {subsection}{\numberline {2.4}Проверка условий применимости}{4}{}\protected@file@percent }
\@writefile{toc}{\contentsline {section}{\numberline {3}Предварительный анализ задачи}{4}{}\protected@file@percent }
\@writefile{toc}{\contentsline {section}{\numberline {4}Тестовый пример}{4}{}\protected@file@percent }
\@writefile{lof}{\contentsline {figure}{\numberline {1}{\ignorespaces Интерполяция по сетке n = 3}}{6}{}\protected@file@percent }
\@writefile{toc}{\contentsline {section}{\numberline {5}Контрольные тесты}{6}{}\protected@file@percent }
\@writefile{toc}{\contentsline {section}{\numberline {6}Численный анализ}{7}{}\protected@file@percent }
\@writefile{lof}{\contentsline {figure}{\numberline {2}{\ignorespaces Интерполяция по сетке n = 4}}{7}{}\protected@file@percent }
\@writefile{lof}{\contentsline {figure}{\numberline {3}{\ignorespaces Интерполяция по сетке n = 9}}{8}{}\protected@file@percent }
\@writefile{lof}{\contentsline {figure}{\numberline {4}{\ignorespaces Интерполяция по сетке n = 64}}{9}{}\protected@file@percent }
\@writefile{lof}{\contentsline {figure}{\numberline {5}{\ignorespaces Зависимость погрешности от количества точек, сопоставление различных сеток}}{10}{}\protected@file@percent }
\gdef\minted@oldcachelist{,
  default-pyg-prefix.pygstyle,
  default.pygstyle,
  5A605AACA0EB5CABBE93DA3A6EFCEEE806E15BAE72F452F1CBAD542774023678.pygtex}
\@writefile{lof}{\contentsline {figure}{\numberline {6}{\ignorespaces Зависимость погрешности от количества точек, сопоставление различных сеток}}{11}{}\protected@file@percent }
\@writefile{toc}{\contentsline {section}{\numberline {7}Вывод}{11}{}\protected@file@percent }
\gdef \@abspage@last{12}
