PWD /home/arseniy/Documents/SPbSTU/Numeric_methods/Sem_4/Labs/Lab_2/Documentation
INPUT /usr/share/texlive/texmf-dist/web2c/texmf.cnf
INPUT /usr/share/texlive/texmf-dist/web2c/texmf.cnf
INPUT /home/arseniy/.texlive2021/texmf-var/web2c/pdftex/pdflatex.fmt
INPUT Lab_2_result.tex
OUTPUT Lab_2_result.log
INPUT /usr/share/texlive/texmf-dist/tex/latex/base/article.cls
INPUT /usr/share/texlive/texmf-dist/tex/latex/base/article.cls
INPUT /usr/share/texlive/texmf-dist/tex/latex/base/article.cls
INPUT /usr/share/texlive/texmf-dist/tex/latex/base/article.cls
INPUT /usr/share/texlive/texmf-dist/tex/latex/base/article.cls
INPUT /usr/share/texlive/texmf-dist/tex/latex/base/article.cls
INPUT /usr/share/texlive/texmf-dist/tex/latex/base/article.cls
INPUT /usr/share/texlive/texmf-dist/tex/latex/base/article.cls
INPUT /usr/share/texlive/texmf-dist/tex/latex/base/article.cls
INPUT /usr/share/texlive/texmf-dist/tex/latex/base/article.cls
INPUT /usr/share/texlive/texmf-dist/tex/latex/base/article.cls
INPUT /usr/share/texlive/texmf-dist/tex/latex/base/size10.clo
INPUT /usr/share/texlive/texmf-dist/tex/latex/base/size10.clo
INPUT /usr/share/texlive/texmf-dist/tex/latex/base/size10.clo
INPUT /usr/share/texlive/texmf-dist/tex/latex/base/size10.clo
INPUT /usr/share/texlive/texmf-dist/tex/latex/base/fontenc.sty
INPUT /usr/share/texlive/texmf-dist/tex/latex/base/fontenc.sty
INPUT /usr/share/texlive/texmf-dist/tex/latex/base/fontenc.sty
INPUT /usr/share/texlive/texmf-dist/tex/latex/base/fontenc.sty
INPUT /usr/share/texlive/texmf-dist/tex/latex/base/fontenc.sty
INPUT /usr/share/texlive/texmf-dist/tex/latex/base/fontenc.sty
INPUT /usr/share/texlive/texmf-dist/tex/latex/base/fontenc.sty
INPUT /usr/share/texlive/texmf-dist/tex/latex/base/fontenc.sty
INPUT /usr/share/texlive/texmf-dist/tex/latex/base/fontenc.sty
INPUT /usr/share/texlive/texmf-dist/tex/latex/base/fontenc.sty
INPUT /usr/share/texlive/texmf-dist/tex/latex/base/fontenc.sty
INPUT /usr/share/texlive/texmf-dist/tex/latex/cyrillic/t2aenc.def
INPUT /usr/share/texlive/texmf-dist/tex/latex/cyrillic/t2aenc.def
INPUT /usr/share/texlive/texmf-dist/tex/latex/cyrillic/t2aenc.def
INPUT /usr/share/texlive/texmf-dist/tex/latex/cyrillic/t2aenc.def
INPUT /usr/share/texlive/texmf-dist/tex/latex/base/t2aenc.dfu
INPUT /usr/share/texlive/texmf-dist/tex/latex/base/t2aenc.dfu
INPUT /usr/share/texlive/texmf-dist/tex/latex/base/t2aenc.dfu
INPUT /usr/share/texlive/texmf-dist/tex/latex/base/t2aenc.dfu
INPUT /usr/share/texlive/texmf-dist/fonts/map/fontname/texfonts.map
INPUT /usr/share/texlive/texmf-dist/fonts/tfm/jknappen/ec/ecrm1000.tfm
INPUT /usr/share/texlive/texmf-dist/tex/latex/base/inputenc.sty
INPUT /usr/share/texlive/texmf-dist/tex/latex/base/inputenc.sty
INPUT /usr/share/texlive/texmf-dist/tex/latex/base/inputenc.sty
INPUT /usr/share/texlive/texmf-dist/tex/latex/base/inputenc.sty
INPUT /usr/share/texlive/texmf-dist/tex/latex/base/inputenc.sty
INPUT /usr/share/texlive/texmf-dist/tex/latex/base/inputenc.sty
INPUT /usr/share/texlive/texmf-dist/tex/latex/base/inputenc.sty
INPUT /usr/share/texlive/texmf-dist/tex/latex/base/inputenc.sty
INPUT /usr/share/texlive/texmf-dist/tex/latex/base/inputenc.sty
INPUT /usr/share/texlive/texmf-dist/tex/latex/base/inputenc.sty
INPUT /usr/share/texlive/texmf-dist/tex/latex/base/inputenc.sty
INPUT /usr/share/texlive/texmf-dist/tex/generic/babel/babel.sty
INPUT /usr/share/texlive/texmf-dist/tex/generic/babel/babel.sty
INPUT /usr/share/texlive/texmf-dist/tex/generic/babel/babel.sty
INPUT /usr/share/texlive/texmf-dist/tex/generic/babel/babel.sty
INPUT /usr/share/texlive/texmf-dist/tex/generic/babel/babel.sty
INPUT /usr/share/texlive/texmf-dist/tex/generic/babel/babel.sty
INPUT /usr/share/texlive/texmf-dist/tex/generic/babel/babel.sty
INPUT /usr/share/texlive/texmf-dist/tex/generic/babel/babel.sty
INPUT /usr/share/texlive/texmf-dist/tex/generic/babel/babel.sty
INPUT /usr/share/texlive/texmf-dist/tex/generic/babel/babel.sty
INPUT /usr/share/texlive/texmf-dist/tex/generic/babel/babel.sty
INPUT /usr/share/texlive/texmf-dist/tex/generic/babel/babel.def
INPUT /usr/share/texlive/texmf-dist/tex/generic/babel/txtbabel.def
INPUT /usr/share/texlive/texmf-dist/tex/generic/babel-russian/russianb.ldf
INPUT /usr/share/texlive/texmf-dist/tex/generic/babel-russian/russianb.ldf
INPUT /usr/share/texlive/texmf-dist/tex/generic/babel-russian/russianb.ldf
INPUT /usr/share/texlive/texmf-dist/tex/generic/babel-russian/russianb.ldf
INPUT /usr/share/texlive/texmf-dist/tex/latex/polyglossia/polyglossia.sty
INPUT /usr/share/texlive/texmf-dist/tex/latex/polyglossia/polyglossia.sty
INPUT /usr/share/texlive/texmf-dist/tex/latex/polyglossia/polyglossia.sty
INPUT /usr/share/texlive/texmf-dist/tex/latex/polyglossia/polyglossia.sty
INPUT /usr/share/texlive/texmf-dist/tex/latex/polyglossia/polyglossia.sty
INPUT /usr/share/texlive/texmf-dist/tex/latex/polyglossia/polyglossia.sty
INPUT /usr/share/texlive/texmf-dist/tex/latex/polyglossia/polyglossia.sty
INPUT /usr/share/texlive/texmf-dist/tex/latex/polyglossia/polyglossia.sty
INPUT /usr/share/texlive/texmf-dist/tex/latex/polyglossia/polyglossia.sty
INPUT /usr/share/texlive/texmf-dist/tex/latex/polyglossia/polyglossia.sty
INPUT /usr/share/texlive/texmf-dist/tex/latex/polyglossia/polyglossia.sty
INPUT /usr/share/texlive/texmf-dist/tex/latex/etoolbox/etoolbox.sty
INPUT /usr/share/texlive/texmf-dist/tex/latex/etoolbox/etoolbox.sty
INPUT /usr/share/texlive/texmf-dist/tex/latex/etoolbox/etoolbox.sty
INPUT /usr/share/texlive/texmf-dist/tex/latex/etoolbox/etoolbox.sty
INPUT /usr/share/texlive/texmf-dist/tex/latex/etoolbox/etoolbox.sty
INPUT /usr/share/texlive/texmf-dist/tex/latex/etoolbox/etoolbox.sty
INPUT /usr/share/texlive/texmf-dist/tex/latex/etoolbox/etoolbox.sty
INPUT /usr/share/texlive/texmf-dist/tex/latex/etoolbox/etoolbox.sty
INPUT /usr/share/texlive/texmf-dist/tex/latex/etoolbox/etoolbox.sty
INPUT /usr/share/texlive/texmf-dist/tex/latex/etoolbox/etoolbox.sty
INPUT /usr/share/texlive/texmf-dist/tex/latex/etoolbox/etoolbox.sty
INPUT /usr/share/texlive/texmf-dist/tex/latex/makecmds/makecmds.sty
INPUT /usr/share/texlive/texmf-dist/tex/latex/makecmds/makecmds.sty
INPUT /usr/share/texlive/texmf-dist/tex/latex/makecmds/makecmds.sty
INPUT /usr/share/texlive/texmf-dist/tex/latex/makecmds/makecmds.sty
INPUT /usr/share/texlive/texmf-dist/tex/latex/makecmds/makecmds.sty
INPUT /usr/share/texlive/texmf-dist/tex/latex/makecmds/makecmds.sty
INPUT /usr/share/texlive/texmf-dist/tex/latex/makecmds/makecmds.sty
INPUT /usr/share/texlive/texmf-dist/tex/latex/makecmds/makecmds.sty
INPUT /usr/share/texlive/texmf-dist/tex/latex/makecmds/makecmds.sty
INPUT /usr/share/texlive/texmf-dist/tex/latex/makecmds/makecmds.sty
INPUT /usr/share/texlive/texmf-dist/tex/latex/makecmds/makecmds.sty
INPUT /usr/share/texlive/texmf-dist/tex/latex/xkeyval/xkeyval.sty
INPUT /usr/share/texlive/texmf-dist/tex/latex/xkeyval/xkeyval.sty
INPUT /usr/share/texlive/texmf-dist/tex/latex/xkeyval/xkeyval.sty
INPUT /usr/share/texlive/texmf-dist/tex/latex/xkeyval/xkeyval.sty
INPUT /usr/share/texlive/texmf-dist/tex/latex/xkeyval/xkeyval.sty
INPUT /usr/share/texlive/texmf-dist/tex/latex/xkeyval/xkeyval.sty
INPUT /usr/share/texlive/texmf-dist/tex/latex/xkeyval/xkeyval.sty
INPUT /usr/share/texlive/texmf-dist/tex/latex/xkeyval/xkeyval.sty
INPUT /usr/share/texlive/texmf-dist/tex/latex/xkeyval/xkeyval.sty
INPUT /usr/share/texlive/texmf-dist/tex/latex/xkeyval/xkeyval.sty
INPUT /usr/share/texlive/texmf-dist/tex/latex/xkeyval/xkeyval.sty
INPUT /usr/share/texlive/texmf-dist/tex/generic/xkeyval/xkeyval.tex
INPUT /usr/share/texlive/texmf-dist/tex/generic/xkeyval/xkvutils.tex
INPUT /usr/share/texlive/texmf-dist/tex/generic/xkeyval/keyval.tex
INPUT /usr/share/texlive/texmf-dist/tex/latex/fontspec/fontspec.sty
INPUT /usr/share/texlive/texmf-dist/tex/latex/fontspec/fontspec.sty
INPUT /usr/share/texlive/texmf-dist/tex/latex/fontspec/fontspec.sty
INPUT /usr/share/texlive/texmf-dist/tex/latex/fontspec/fontspec.sty
INPUT /usr/share/texlive/texmf-dist/tex/latex/fontspec/fontspec.sty
INPUT /usr/share/texlive/texmf-dist/tex/latex/fontspec/fontspec.sty
INPUT /usr/share/texlive/texmf-dist/tex/latex/fontspec/fontspec.sty
INPUT /usr/share/texlive/texmf-dist/tex/latex/fontspec/fontspec.sty
INPUT /usr/share/texlive/texmf-dist/tex/latex/fontspec/fontspec.sty
INPUT /usr/share/texlive/texmf-dist/tex/latex/fontspec/fontspec.sty
INPUT /usr/share/texlive/texmf-dist/tex/latex/fontspec/fontspec.sty
INPUT /usr/share/texlive/texmf-dist/tex/latex/l3packages/xparse/xparse.sty
INPUT /usr/share/texlive/texmf-dist/tex/latex/l3packages/xparse/xparse.sty
INPUT /usr/share/texlive/texmf-dist/tex/latex/l3packages/xparse/xparse.sty
INPUT /usr/share/texlive/texmf-dist/tex/latex/l3packages/xparse/xparse.sty
INPUT /usr/share/texlive/texmf-dist/tex/latex/l3packages/xparse/xparse.sty
INPUT /usr/share/texlive/texmf-dist/tex/latex/l3packages/xparse/xparse.sty
INPUT /usr/share/texlive/texmf-dist/tex/latex/l3packages/xparse/xparse.sty
INPUT /usr/share/texlive/texmf-dist/tex/latex/l3packages/xparse/xparse.sty
INPUT /usr/share/texlive/texmf-dist/tex/latex/l3packages/xparse/xparse.sty
INPUT /usr/share/texlive/texmf-dist/tex/latex/l3packages/xparse/xparse.sty
INPUT /usr/share/texlive/texmf-dist/tex/latex/l3packages/xparse/xparse.sty
INPUT /usr/share/texlive/texmf-dist/tex/latex/l3kernel/expl3.sty
INPUT /usr/share/texlive/texmf-dist/tex/latex/l3kernel/expl3.sty
INPUT /usr/share/texlive/texmf-dist/tex/latex/l3kernel/expl3.sty
INPUT /usr/share/texlive/texmf-dist/tex/latex/l3kernel/expl3.sty
INPUT /usr/share/texlive/texmf-dist/tex/latex/l3kernel/expl3.sty
INPUT /usr/share/texlive/texmf-dist/tex/latex/l3kernel/expl3.sty
INPUT /usr/share/texlive/texmf-dist/tex/latex/l3kernel/expl3.sty
INPUT /usr/share/texlive/texmf-dist/tex/latex/l3kernel/expl3.sty
INPUT /usr/share/texlive/texmf-dist/tex/latex/l3kernel/expl3.sty
INPUT /usr/share/texlive/texmf-dist/tex/latex/l3kernel/expl3.sty
INPUT /usr/share/texlive/texmf-dist/tex/latex/l3kernel/expl3.sty
INPUT /usr/share/texlive/texmf-dist/tex/latex/l3backend/l3backend-pdftex.def
INPUT /usr/share/texlive/texmf-dist/tex/latex/l3backend/l3backend-pdftex.def
INPUT /usr/share/texlive/texmf-dist/tex/latex/l3backend/l3backend-pdftex.def
INPUT /usr/share/texlive/texmf-dist/tex/latex/l3backend/l3backend-pdftex.def
INPUT /usr/share/texlive/texmf-dist/tex/latex/l3backend/l3backend-pdftex.def
INPUT /usr/share/texlive/texmf-dist/tex/latex/l3backend/l3backend-pdftex.def
INPUT /usr/share/texlive/texmf-dist/tex/latex/l3backend/l3backend-pdftex.def
INPUT /usr/share/texlive/texmf-dist/tex/latex/l3backend/l3backend-pdftex.def
INPUT /usr/share/texlive/texmf-dist/tex/latex/l3backend/l3backend-pdftex.def
INPUT /usr/share/texlive/texmf-dist/tex/latex/l3backend/l3backend-pdftex.def
INPUT /usr/share/texlive/texmf-dist/tex/latex/l3backend/l3backend-pdftex.def
INPUT /usr/share/texlive/texmf-dist/tex/latex/l3packages/xparse/xparse-2020-10-01.sty
INPUT /usr/share/texlive/texmf-dist/tex/latex/l3packages/xparse/xparse-2020-10-01.sty
INPUT /usr/share/texlive/texmf-dist/tex/latex/l3packages/xparse/xparse-2020-10-01.sty
INPUT /usr/share/texlive/texmf-dist/tex/latex/l3packages/xparse/xparse-2020-10-01.sty
INPUT /usr/share/texlive/texmf-dist/tex/latex/l3packages/xparse/xparse-2020-10-01.sty
INPUT /usr/share/texlive/texmf-dist/tex/latex/l3packages/xparse/xparse-2020-10-01.sty
INPUT /usr/share/texlive/texmf-dist/tex/latex/l3packages/xparse/xparse-2020-10-01.sty
INPUT /usr/share/texlive/texmf-dist/tex/latex/l3packages/xparse/xparse-2020-10-01.sty
INPUT /usr/share/texlive/texmf-dist/tex/latex/l3packages/xparse/xparse-2020-10-01.sty
INPUT /usr/share/texlive/texmf-dist/tex/latex/l3packages/xparse/xparse-2020-10-01.sty
INPUT /usr/share/texlive/texmf-dist/tex/latex/l3packages/xparse/xparse-2020-10-01.sty
INPUT /usr/share/texlive/texmf-dist/tex/latex/l3kernel/expl3.sty
INPUT /usr/share/texlive/texmf-dist/tex/latex/l3packages/xparse/xparse-generic.tex
