\relax 
\providecommand\babel@aux[2]{}
\@nameuse{bbl@beforestart}
\catcode `"\active 
\selectlanguage *{russian}
\@writefile{toc}{\selectlanguage *{russian}}
\@writefile{lof}{\selectlanguage *{russian}}
\@writefile{lot}{\selectlanguage *{russian}}
\selectlanguage *{russian}
\@writefile{toc}{\selectlanguage *{russian}}
\@writefile{lof}{\selectlanguage *{russian}}
\@writefile{lot}{\selectlanguage *{russian}}
\@writefile{toc}{\contentsline {section}{\numberline {1}Формулировка задачи}{2}{}\protected@file@percent }
\@writefile{toc}{\contentsline {section}{\numberline {2}Формализация задачи}{2}{}\protected@file@percent }
\@writefile{toc}{\contentsline {section}{\numberline {3}Алгоритм и условия применимости}{3}{}\protected@file@percent }
\@writefile{toc}{\contentsline {subsection}{\numberline {3.1}Алгоритм модифицированного метода Эйлера}{3}{}\protected@file@percent }
\@writefile{toc}{\contentsline {subsubsection}{\numberline {3.1.1}Условия применимости}{7}{}\protected@file@percent }
\@writefile{toc}{\contentsline {subsection}{\numberline {3.2}Метод пристрелки}{8}{}\protected@file@percent }
\@writefile{toc}{\contentsline {section}{\numberline {4}Проверка условий применимости}{8}{}\protected@file@percent }
\@writefile{toc}{\contentsline {section}{\numberline {5}Тестовый пример}{8}{}\protected@file@percent }
\@writefile{toc}{\contentsline {section}{\numberline {6}Предварительный анализ задачи}{10}{}\protected@file@percent }
\@writefile{lof}{\contentsline {figure}{\numberline {1}{\ignorespaces График решения на промежутке от 1 до 5}}{11}{}\protected@file@percent }
\@writefile{toc}{\contentsline {section}{\numberline {7}Численный анализ}{12}{}\protected@file@percent }
\@writefile{lof}{\contentsline {figure}{\numberline {2}{\ignorespaces График абсолютной ошибки от заданной точности}}{12}{}\protected@file@percent }
\newlabel{fig:fig1}{{2}{12}}
\@writefile{lof}{\contentsline {figure}{\numberline {3}{\ignorespaces График значений абсолютной ошибки в каждой итерации выполнения пристрелки}}{14}{}\protected@file@percent }
\@writefile{lof}{\contentsline {figure}{\numberline {4}{\ignorespaces График зависимости итераций пристрелки от точности вычислений}}{16}{}\protected@file@percent }
\@writefile{lof}{\contentsline {figure}{\numberline {5}{\ignorespaces Сравнение промежуточных результатов вычислений и точного решения}}{18}{}\protected@file@percent }
\@writefile{lof}{\contentsline {figure}{\numberline {6}{\ignorespaces Сравнение промежуточных результатов вычислений и точного решения}}{20}{}\protected@file@percent }
\@writefile{toc}{\contentsline {section}{\numberline {8}Вывод}{21}{}\protected@file@percent }
\gdef \@abspage@last{23}
