\relax 
\bbl@cs{beforestart}
\catcode `"\active 
\babel@aux{russian}{}
\@writefile{toc}{\contentsline {section}{\numberline {1}Формулировка задачи}{2}\protected@file@percent }
\@writefile{toc}{\contentsline {section}{\numberline {2}Алгоритм метода и условие его применимости}{2}\protected@file@percent }
\@writefile{toc}{\contentsline {subsection}{\numberline {2.1}Метод половинного деления}{2}\protected@file@percent }
\@writefile{toc}{\contentsline {subsubsection}{\numberline {2.1.1}Условие применимости}{2}\protected@file@percent }
\@writefile{toc}{\contentsline {subsubsection}{\numberline {2.1.2}Алгоритм}{2}\protected@file@percent }
\@writefile{toc}{\contentsline {subsection}{\numberline {2.2}Метод Хорд и Ньютона}{2}\protected@file@percent }
\@writefile{toc}{\contentsline {subsubsection}{\numberline {2.2.1}Условие применимости}{2}\protected@file@percent }
\@writefile{toc}{\contentsline {subsubsection}{\numberline {2.2.2}Алгоритм}{2}\protected@file@percent }
\@writefile{toc}{\contentsline {section}{\numberline {3}Предварительный анализ задачи}{3}\protected@file@percent }
\@writefile{toc}{\contentsline {subsection}{\numberline {3.1}Алгебраическое уравнение}{3}\protected@file@percent }
\@writefile{lof}{\contentsline {figure}{\numberline {1}{\ignorespaces Первый отрицательный корень на промежутке $[-1, -0.2]$}}{4}\protected@file@percent }
\@writefile{lof}{\contentsline {figure}{\numberline {2}{\ignorespaces Первый положительный корень на промежутке $[0.2, 1]$}}{5}\protected@file@percent }
\@writefile{lof}{\contentsline {figure}{\numberline {3}{\ignorespaces Оба корня на одном графике}}{6}\protected@file@percent }
\@writefile{toc}{\contentsline {subsection}{\numberline {3.2}Трансцендентное уравнение}{6}\protected@file@percent }
\@writefile{lof}{\contentsline {figure}{\numberline {4}{\ignorespaces На графике видно, что уравнение имеет один корень}}{7}\protected@file@percent }
\@writefile{toc}{\contentsline {section}{\numberline {4}Проверка условий применимости}{7}\protected@file@percent }
\@writefile{toc}{\contentsline {subsection}{\numberline {4.1}Алгебраическое уравнение}{7}\protected@file@percent }
\@writefile{toc}{\contentsline {subsubsection}{\numberline {4.1.1}Проверка условий для метода половинного деления}{7}\protected@file@percent }
\@writefile{toc}{\contentsline {subsubsection}{\numberline {4.1.2}Проверка условий для метода Хорд и Ньютона}{7}\protected@file@percent }
\@writefile{lof}{\contentsline {figure}{\numberline {5}{\ignorespaces Производные полинома знакопостоянны}}{8}\protected@file@percent }
\@writefile{toc}{\contentsline {subsection}{\numberline {4.2}Трансцендентное уравнение}{8}\protected@file@percent }
\@writefile{toc}{\contentsline {subsubsection}{\numberline {4.2.1}Проверка условий для метода половинного деления}{8}\protected@file@percent }
\@writefile{toc}{\contentsline {subsubsection}{\numberline {4.2.2}Проверка условий для метода Хорд и Ньютона}{8}\protected@file@percent }
\@writefile{lof}{\contentsline {figure}{\numberline {6}{\ignorespaces Производные трансцендентной функции знакопостоянны}}{9}\protected@file@percent }
\@writefile{toc}{\contentsline {section}{\numberline {5}Тестовый пример}{9}\protected@file@percent }
\@writefile{toc}{\contentsline {subsection}{\numberline {5.1}Метод половинного деления}{9}\protected@file@percent }
\@writefile{toc}{\contentsline {subsection}{\numberline {5.2}Метод Хорд и Ньютона}{10}\protected@file@percent }
\@writefile{toc}{\contentsline {section}{\numberline {6}Контрольные тесты}{10}\protected@file@percent }
\@writefile{toc}{\contentsline {section}{\numberline {7}Вычисляющая программа}{11}\protected@file@percent }
\@writefile{toc}{\contentsline {subsection}{\numberline {7.1}Метод половинного деления}{11}\protected@file@percent }
\@writefile{toc}{\contentsline {subsection}{\numberline {7.2}Метод хорд и Ньютона}{12}\protected@file@percent }
\@writefile{toc}{\contentsline {section}{\numberline {8}Численный анализ}{13}\protected@file@percent }
\@writefile{lof}{\contentsline {figure}{\numberline {7}{\ignorespaces Зависимость абсолютной ошибки от итерации}}{13}\protected@file@percent }
\@writefile{lof}{\contentsline {figure}{\numberline {8}{\ignorespaces Зависимость количества вычислений от $\varepsilon $}}{14}\protected@file@percent }
\@writefile{lof}{\contentsline {figure}{\numberline {9}{\ignorespaces Зависимость абсолютной ошибки от $\varepsilon $}}{15}\protected@file@percent }
\@writefile{toc}{\contentsline {section}{\numberline {9}Выводы}{15}\protected@file@percent }
