\relax 
\providecommand\babel@aux[2]{}
\@nameuse{bbl@beforestart}
\catcode `"\active 
\babel@aux{russian}{}
\@writefile{toc}{\contentsline {section}{\numberline {1}Формулировка задачи}{2}{}\protected@file@percent }
\@writefile{toc}{\contentsline {section}{\numberline {2}Алгоритм метода и условие его применимости}{2}{}\protected@file@percent }
\@writefile{toc}{\contentsline {subsection}{\numberline {2.1}Построение сеток}{2}{}\protected@file@percent }
\@writefile{toc}{\contentsline {subsubsection}{\numberline {2.1.1}Разбиение Чебышева}{2}{}\protected@file@percent }
\@writefile{toc}{\contentsline {subsubsection}{\numberline {2.1.2}Равномерное разбиение}{2}{}\protected@file@percent }
\@writefile{toc}{\contentsline {subsection}{\numberline {2.2}Алгоритм}{2}{}\protected@file@percent }
\@writefile{toc}{\contentsline {subsection}{\numberline {2.3}Условие применимости}{2}{}\protected@file@percent }
\@writefile{toc}{\contentsline {section}{\numberline {3}Предварительный анализ задачи}{3}{}\protected@file@percent }
\@writefile{toc}{\contentsline {section}{\numberline {4}Проверка условий применимости}{3}{}\protected@file@percent }
\@writefile{toc}{\contentsline {section}{\numberline {5}Тестовый пример}{3}{}\protected@file@percent }
\@writefile{lof}{\contentsline {figure}{\numberline {1}{\ignorespaces Интерполяция по сетке n = 4}}{3}{}\protected@file@percent }
\@writefile{toc}{\contentsline {section}{\numberline {6}Контрольные тесты}{4}{}\protected@file@percent }
\@writefile{toc}{\contentsline {section}{\numberline {7}Вычисляющая программа}{5}{}\protected@file@percent }
\@writefile{toc}{\contentsline {section}{\numberline {8}Численный анализа}{6}{}\protected@file@percent }
\@writefile{lof}{\contentsline {figure}{\numberline {2}{\ignorespaces Интерполяция по сетке n = 4}}{6}{}\protected@file@percent }
\@writefile{lof}{\contentsline {figure}{\numberline {3}{\ignorespaces Интерполяция по сетке n = 9}}{7}{}\protected@file@percent }
\@writefile{lof}{\contentsline {figure}{\numberline {4}{\ignorespaces Интерполяция по сетке n = 64}}{8}{}\protected@file@percent }
\@writefile{lof}{\contentsline {figure}{\numberline {5}{\ignorespaces Зависимость погрешности от количества точек при равномерной сетке}}{9}{}\protected@file@percent }
\@writefile{lof}{\contentsline {figure}{\numberline {6}{\ignorespaces Зависимость погрешности от количества точек при сетке Чебышева}}{10}{}\protected@file@percent }
\gdef\minted@oldcachelist{,
  default-pyg-prefix.pygstyle,
  default.pygstyle,
  41D65BEE5CCDA4A19C623213A1678D31FF164287E6E2239F06E65FE6183D7B83.pygtex}
\@writefile{lof}{\contentsline {figure}{\numberline {7}{\ignorespaces Зависимость погрешности от количества точек, сопоставление различных сеток}}{11}{}\protected@file@percent }
\@writefile{toc}{\contentsline {section}{\numberline {9}Вывод}{11}{}\protected@file@percent }
\gdef \@abspage@last{12}
