\relax 
\providecommand\babel@aux[2]{}
\@nameuse{bbl@beforestart}
\catcode `"\active 
\babel@aux{russian}{}
\@writefile{toc}{\contentsline {section}{\numberline {1}Формулировка задачи}{2}{}\protected@file@percent }
\@writefile{toc}{\contentsline {section}{\numberline {2}Алгоритм метода Якоби и условие его применимости}{2}{}\protected@file@percent }
\@writefile{toc}{\contentsline {subsection}{\numberline {2.1}Условие применимости}{2}{}\protected@file@percent }
\@writefile{toc}{\contentsline {subsection}{\numberline {2.2}Алгоритм}{2}{}\protected@file@percent }
\@writefile{toc}{\contentsline {section}{\numberline {3}Предварительный анализ задачи}{3}{}\protected@file@percent }
\@writefile{toc}{\contentsline {section}{\numberline {4}Проверка условий применимости}{3}{}\protected@file@percent }
\@writefile{toc}{\contentsline {section}{\numberline {5}Тестовый пример применения метода Якоби}{3}{}\protected@file@percent }
\@writefile{toc}{\contentsline {section}{\numberline {6}Контрольные тесты}{3}{}\protected@file@percent }
\@writefile{toc}{\contentsline {section}{\numberline {7}Вычисляющая программа}{4}{}\protected@file@percent }
\@writefile{toc}{\contentsline {section}{\numberline {8}Численный анализ метода Якоби}{5}{}\protected@file@percent }
\@writefile{lof}{\contentsline {figure}{\numberline {1}{\ignorespaces Зависимость числа итераций от диагонального преобладания}}{5}{}\protected@file@percent }
\@writefile{lof}{\contentsline {figure}{\numberline {2}{\ignorespaces Зависимость погрешности от числа итерации}}{6}{}\protected@file@percent }
\@writefile{lof}{\contentsline {figure}{\numberline {3}{\ignorespaces Сравнение времени вычисления от размера матрицы, решая их методом Гаусса и методом Якоби}}{7}{}\protected@file@percent }
\@writefile{lof}{\contentsline {figure}{\numberline {4}{\ignorespaces Сравнение времени вычисления от размера матрицы, решая их методом Гаусса и методом Якоби}}{8}{}\protected@file@percent }
\@writefile{toc}{\contentsline {section}{\numberline {9}Вывод}{8}{}\protected@file@percent }
\gdef \@abspage@last{9}
