\relax 
\providecommand\babel@aux[2]{}
\@nameuse{bbl@beforestart}
\catcode `"\active 
\selectlanguage *{russian}
\@writefile{toc}{\selectlanguage *{russian}}
\@writefile{lof}{\selectlanguage *{russian}}
\@writefile{lot}{\selectlanguage *{russian}}
\selectlanguage *{russian}
\@writefile{toc}{\selectlanguage *{russian}}
\@writefile{lof}{\selectlanguage *{russian}}
\@writefile{lot}{\selectlanguage *{russian}}
\@writefile{toc}{\contentsline {section}{\numberline {1}Формулировка задачи}{2}{}\protected@file@percent }
\@writefile{toc}{\contentsline {section}{\numberline {2}Алгоритм метода и условие его применимости}{2}{}\protected@file@percent }
\@writefile{toc}{\contentsline {subsection}{\numberline {2.1}Алгоритм метода 3/8}{2}{}\protected@file@percent }
\@writefile{toc}{\contentsline {subsubsection}{\numberline {2.1.1}Условия применимости метода 3/8}{4}{}\protected@file@percent }
\@writefile{toc}{\contentsline {subsubsection}{\numberline {2.1.2}Проверка условий применимости}{4}{}\protected@file@percent }
\@writefile{toc}{\contentsline {subsection}{\numberline {2.2}Алгоритм метода Лобатто}{4}{}\protected@file@percent }
\@writefile{toc}{\contentsline {subsubsection}{\numberline {2.2.1}Условия применимости метода 3/8}{5}{}\protected@file@percent }
\@writefile{toc}{\contentsline {subsubsection}{\numberline {2.2.2}Проверка условий применимости}{5}{}\protected@file@percent }
\@writefile{toc}{\contentsline {section}{\numberline {3}Тестовый пример}{6}{}\protected@file@percent }
\@writefile{toc}{\contentsline {subsection}{\numberline {3.1}Метод 3/8}{6}{}\protected@file@percent }
\@writefile{toc}{\contentsline {subsection}{\numberline {3.2}Метод Лобатто}{6}{}\protected@file@percent }
\@writefile{toc}{\contentsline {section}{\numberline {4}Предварительный анализ задачи}{7}{}\protected@file@percent }
\@writefile{lof}{\contentsline {figure}{\numberline {1}{\ignorespaces График зависимости экспериментальной точности от задаваемой точности}}{8}{}\protected@file@percent }
\@writefile{toc}{\contentsline {section}{\numberline {5}Вычисляющая программа}{8}{}\protected@file@percent }
\@writefile{toc}{\contentsline {section}{\numberline {6}Численный анализ}{9}{}\protected@file@percent }
\@writefile{toc}{\contentsline {subsection}{\numberline {6.1}Метод 3/8}{9}{}\protected@file@percent }
\@writefile{lof}{\contentsline {figure}{\numberline {2}{\ignorespaces  Зависимость абсолютной погрешности от количества отрезков разбиения}}{9}{}\protected@file@percent }
\newlabel{fig:fig1}{{2}{9}}
\@writefile{lof}{\contentsline {figure}{\numberline {3}{\ignorespaces График зависимости экспериментальной точности от задаваемой точности}}{10}{}\protected@file@percent }
\newlabel{fig:fig2}{{3}{10}}
\@writefile{lof}{\contentsline {figure}{\numberline {4}{\ignorespaces  График зависимости количества отрезков разбиения от задаваемой точности}}{11}{}\protected@file@percent }
\newlabel{fig:fig3}{{4}{11}}
\@writefile{toc}{\contentsline {subsection}{\numberline {6.2}Метод Лобатто}{12}{}\protected@file@percent }
\@writefile{lof}{\contentsline {figure}{\numberline {5}{\ignorespaces  Зависимость абсолютной погрешности от количества отрезков разбиения}}{12}{}\protected@file@percent }
\newlabel{fig:fig4}{{5}{12}}
\@writefile{lof}{\contentsline {figure}{\numberline {6}{\ignorespaces График зависимости экспериментальной точности от задаваемой точности}}{13}{}\protected@file@percent }
\newlabel{fig:fig5}{{6}{13}}
\@writefile{lof}{\contentsline {figure}{\numberline {7}{\ignorespaces  График зависимости количества отрезков разбиения от задаваемой точности}}{14}{}\protected@file@percent }
\newlabel{fig:fig6}{{7}{14}}
\@writefile{toc}{\contentsline {subsection}{\numberline {6.3}Сравнение методов}{15}{}\protected@file@percent }
\@writefile{lof}{\contentsline {figure}{\numberline {8}{\ignorespaces  Зависимость абсолютной погрешности от количества отрезков разбиения}}{15}{}\protected@file@percent }
\newlabel{fig:fig7}{{8}{15}}
\@writefile{lof}{\contentsline {figure}{\numberline {9}{\ignorespaces  График зависимости количества отрезков разбиения от задаваемой точности}}{16}{}\protected@file@percent }
\newlabel{fig:fig8}{{9}{16}}
\@writefile{toc}{\contentsline {section}{\numberline {7}Вывод}{16}{}\protected@file@percent }
\gdef \@abspage@last{17}
