\selectlanguage *{russian}
\selectlanguage *{russian}
\contentsline {section}{\numberline {1}Формулировка задачи}{2}{}%
\contentsline {section}{\numberline {2}Алгоритм метода}{2}{}%
\contentsline {subsection}{\numberline {2.1}Метод 3/8}{2}{}%
\contentsline {subsubsection}{\numberline {2.1.1}Алгоритм}{2}{}%
\contentsline {subsubsection}{\numberline {2.1.2}Условие применимости}{3}{}%
\contentsline {section}{\numberline {3}Проверка условий применимости}{3}{}%
\contentsline {section}{\numberline {4}Тестовый пример}{3}{}%
\contentsline {section}{\numberline {5}Контрольные тесты}{4}{}%
\contentsline {section}{\numberline {6}Модульная структура программы}{4}{}%
\contentsline {section}{\numberline {7}Численный анализ}{5}{}%
\contentsline {section}{\numberline {8}Вывод}{5}{}%
