\relax 
\providecommand\babel@aux[2]{}
\@nameuse{bbl@beforestart}
\catcode `"\active 
\selectlanguage *{russian}
\@writefile{toc}{\selectlanguage *{russian}}
\@writefile{lof}{\selectlanguage *{russian}}
\@writefile{lot}{\selectlanguage *{russian}}
\selectlanguage *{russian}
\@writefile{toc}{\selectlanguage *{russian}}
\@writefile{lof}{\selectlanguage *{russian}}
\@writefile{lot}{\selectlanguage *{russian}}
\@writefile{toc}{\contentsline {section}{\numberline {1}Формулировка задачи}{2}{}\protected@file@percent }
\@writefile{toc}{\contentsline {section}{\numberline {2}Алгоритм метода}{2}{}\protected@file@percent }
\@writefile{toc}{\contentsline {subsection}{\numberline {2.1}Метод 3/8}{2}{}\protected@file@percent }
\@writefile{toc}{\contentsline {subsubsection}{\numberline {2.1.1}Алгоритм}{2}{}\protected@file@percent }
\@writefile{toc}{\contentsline {subsubsection}{\numberline {2.1.2}Условие применимости}{3}{}\protected@file@percent }
\@writefile{toc}{\contentsline {section}{\numberline {3}Проверка условий применимости}{3}{}\protected@file@percent }
\@writefile{toc}{\contentsline {section}{\numberline {4}Тестовый пример}{3}{}\protected@file@percent }
\@writefile{toc}{\contentsline {section}{\numberline {5}Контрольные тесты}{4}{}\protected@file@percent }
\@writefile{toc}{\contentsline {section}{\numberline {6}Модульная структура программы}{4}{}\protected@file@percent }
\@writefile{toc}{\contentsline {section}{\numberline {7}Численный анализ}{5}{}\protected@file@percent }
\@writefile{lof}{\contentsline {figure}{\numberline {1}{\ignorespaces Зависимость абсолютной погрешности от количества отрезков разбиения}}{5}{}\protected@file@percent }
\newlabel{fig:1}{{1}{5}}
\@writefile{lof}{\contentsline {figure}{\numberline {2}{\ignorespaces График зависимости экспериментальной точности от задаваемой точности}}{5}{}\protected@file@percent }
\newlabel{fig:2}{{2}{5}}
\@writefile{lof}{\contentsline {figure}{\numberline {3}{\ignorespaces График зависимости количества отрезков разбиения от задаваемой точности}}{5}{}\protected@file@percent }
\newlabel{fig:3}{{3}{5}}
\@writefile{toc}{\contentsline {section}{\numberline {8}Вывод}{5}{}\protected@file@percent }
\gdef \@abspage@last{6}
