<?xml version="1.0" encoding="UTF-8"?>
<!DOCTYPE svg PUBLIC '-//W3C//DTD SVG 1.0//EN'
          'http://www.w3.org/TR/2001/REC-SVG-20010904/DTD/svg10.dtd'>
<svg fill-opacity="1" xmlns:xlink="http://www.w3.org/1999/xlink" color-rendering="auto" color-interpolation="auto" text-rendering="auto" stroke="black" stroke-linecap="square" width="600" stroke-miterlimit="10" shape-rendering="auto" stroke-opacity="1" fill="black" stroke-dasharray="none" font-weight="normal" stroke-width="1" viewBox="370 120 600 720" height="720" xmlns="http://www.w3.org/2000/svg" font-family="'Dialog'" font-style="normal" stroke-linejoin="miter" font-size="12px" stroke-dashoffset="0" image-rendering="auto"
><!--Generated by the Batik Graphics2D SVG Generator--><defs id="genericDefs"
  /><g
  ><defs id="defs1"
    ><clipPath clipPathUnits="userSpaceOnUse" id="clipPath1"
      ><path d="M0 0 L2147483647 0 L2147483647 2147483647 L0 2147483647 L0 0 Z"
      /></clipPath
      ><clipPath clipPathUnits="userSpaceOnUse" id="clipPath2"
      ><path d="M0 0 L0 30 L100 30 L100 0 Z"
      /></clipPath
      ><clipPath clipPathUnits="userSpaceOnUse" id="clipPath3"
      ><path d="M0 0 L0 40 L120 40 L120 0 Z"
      /></clipPath
      ><clipPath clipPathUnits="userSpaceOnUse" id="clipPath4"
      ><path d="M0 0 L0 70 L30 70 L30 0 Z"
      /></clipPath
      ><clipPath clipPathUnits="userSpaceOnUse" id="clipPath5"
      ><path d="M0 0 L0 110 L130 110 L130 0 Z"
      /></clipPath
      ><clipPath clipPathUnits="userSpaceOnUse" id="clipPath6"
      ><path d="M0 0 L0 370 L230 370 L230 0 Z"
      /></clipPath
      ><clipPath clipPathUnits="userSpaceOnUse" id="clipPath7"
      ><path d="M0 0 L0 80 L30 80 L30 0 Z"
      /></clipPath
      ><clipPath clipPathUnits="userSpaceOnUse" id="clipPath8"
      ><path d="M0 0 L0 90 L130 90 L130 0 Z"
      /></clipPath
      ><clipPath clipPathUnits="userSpaceOnUse" id="clipPath9"
      ><path d="M0 0 L0 100 L120 100 L120 0 Z"
      /></clipPath
      ><clipPath clipPathUnits="userSpaceOnUse" id="clipPath10"
      ><path d="M0 0 L0 100 L140 100 L140 0 Z"
      /></clipPath
      ><clipPath clipPathUnits="userSpaceOnUse" id="clipPath11"
      ><path d="M0 0 L0 530 L240 530 L240 0 Z"
      /></clipPath
      ><clipPath clipPathUnits="userSpaceOnUse" id="clipPath12"
      ><path d="M0 0 L0 80 L50 80 L50 0 Z"
      /></clipPath
      ><clipPath clipPathUnits="userSpaceOnUse" id="clipPath13"
      ><path d="M0 0 L0 60 L30 60 L30 0 Z"
      /></clipPath
    ></defs
    ><g fill="rgb(255,255,255)" fill-opacity="0" transform="translate(610,710)" stroke-opacity="0" stroke="rgb(255,255,255)"
    ><rect x="0.5" width="98.5" height="28.5" y="0.5" clip-path="url(#clipPath2)" stroke="none"
    /></g
    ><g transform="translate(610,710)"
    ><rect fill="none" x="0.5" width="98.5" height="28.5" y="0.5" clip-path="url(#clipPath2)"
      /><text x="8" font-size="14px" y="18.1094" clip-path="url(#clipPath2)" font-family="sans-serif" stroke="none" xml:space="preserve"
      >x = (a+b)/2</text
    ></g
    ><g fill="rgb(255,255,0)" fill-opacity="0.4902" transform="translate(600,620)" stroke-opacity="0.4902" stroke="rgb(255,255,0)"
    ><ellipse rx="59.25" ry="19.25" clip-path="url(#clipPath3)" cx="59.75" cy="19.75" stroke="none"
    /></g
    ><g transform="translate(600,620)"
    ><ellipse rx="59.25" fill="none" ry="19.25" clip-path="url(#clipPath3)" cx="59.75" cy="19.75"
      /><text x="24" font-size="14px" y="25.0547" clip-path="url(#clipPath3)" font-family="sans-serif" stroke="none" xml:space="preserve"
      >|b-a| &gt; 2e</text
    ></g
    ><g fill="rgb(0,255,0)" fill-opacity="0.4902" transform="translate(600,780)" stroke-opacity="0.4902" stroke="rgb(0,255,0)"
    ><ellipse rx="59.25" ry="19.25" clip-path="url(#clipPath3)" cx="59.75" cy="19.75" stroke="none"
    /></g
    ><g transform="translate(600,780)"
    ><ellipse rx="59.25" fill="none" ry="19.25" clip-path="url(#clipPath3)" cx="59.75" cy="19.75"
      /><text x="37" font-size="14px" y="25.0547" clip-path="url(#clipPath3)" font-family="sans-serif" stroke="none" xml:space="preserve"
      >конец</text
    ></g
    ><g fill="rgb(255,255,255)" fill-opacity="0" transform="translate(460,550)" stroke-opacity="0" stroke="rgb(255,255,255)"
    ><rect x="0.5" width="98.5" height="28.5" y="0.5" clip-path="url(#clipPath2)" stroke="none"
    /></g
    ><g transform="translate(460,550)"
    ><rect fill="none" x="0.5" width="98.5" height="28.5" y="0.5" clip-path="url(#clipPath2)"
      /><text x="35" font-size="14px" y="18.1094" clip-path="url(#clipPath2)" font-family="sans-serif" stroke="none" xml:space="preserve"
      >b=c</text
    ></g
    ><g fill="rgb(255,255,255)" fill-opacity="0" transform="translate(760,550)" stroke-opacity="0" stroke="rgb(255,255,255)"
    ><rect x="0.5" width="98.5" height="28.5" y="0.5" clip-path="url(#clipPath2)" stroke="none"
    /></g
    ><g transform="translate(760,550)"
    ><rect fill="none" x="0.5" width="98.5" height="28.5" y="0.5" clip-path="url(#clipPath2)"
      /><text x="35" font-size="14px" y="18.1094" clip-path="url(#clipPath2)" font-family="sans-serif" stroke="none" xml:space="preserve"
      >a=c</text
    ></g
    ><g fill="rgb(255,255,0)" fill-opacity="0.4902" transform="translate(600,460)" stroke-opacity="0.4902" stroke="rgb(255,255,0)"
    ><ellipse rx="59.25" ry="19.25" clip-path="url(#clipPath3)" cx="59.75" cy="19.75" stroke="none"
    /></g
    ><g transform="translate(600,460)"
    ><ellipse rx="59.25" fill="none" ry="19.25" clip-path="url(#clipPath3)" cx="59.75" cy="19.75"
      /><text x="20" font-size="14px" y="25.0547" clip-path="url(#clipPath3)" font-family="sans-serif" stroke="none" xml:space="preserve"
      >f(a)f(b) &lt; 0</text
    ></g
    ><g fill="rgb(255,255,255)" fill-opacity="0" transform="translate(600,370)" stroke-opacity="0" stroke="rgb(255,255,255)"
    ><rect x="0.5" width="118.5" height="38.5" y="0.5" clip-path="url(#clipPath3)" stroke="none"
    /></g
    ><g transform="translate(600,370)"
    ><rect fill="none" x="0.5" width="118.5" height="38.5" y="0.5" clip-path="url(#clipPath3)"
      /><text x="18" font-size="14px" y="18.1094" clip-path="url(#clipPath3)" font-family="sans-serif" stroke="none" xml:space="preserve"
      >c = (a+b)/2</text
      ><text x="43" font-size="14px" y="34.2188" clip-path="url(#clipPath3)" font-family="sans-serif" stroke="none" xml:space="preserve"
      >n++</text
    ></g
    ><g fill="rgb(255,255,0)" fill-opacity="0.4902" transform="translate(600,280)" stroke-opacity="0.4902" stroke="rgb(255,255,0)"
    ><ellipse rx="59.25" ry="19.25" clip-path="url(#clipPath3)" cx="59.75" cy="19.75" stroke="none"
    /></g
    ><g transform="translate(600,280)"
    ><ellipse rx="59.25" fill="none" ry="19.25" clip-path="url(#clipPath3)" cx="59.75" cy="19.75"
      /><text x="14" font-size="14px" y="25.0547" clip-path="url(#clipPath3)" font-family="sans-serif" stroke="none" xml:space="preserve"
      >f(a)f(b) &gt;= 0</text
    ></g
    ><g fill="rgb(255,255,255)" fill-opacity="0" transform="translate(610,210)" stroke-opacity="0" stroke="rgb(255,255,255)"
    ><rect x="0.5" width="98.5" height="28.5" y="0.5" clip-path="url(#clipPath2)" stroke="none"
    /></g
    ><g transform="translate(610,210)"
    ><rect fill="none" x="0.5" width="98.5" height="28.5" y="0.5" clip-path="url(#clipPath2)"
      /><text x="35" font-size="14px" y="18.1094" clip-path="url(#clipPath2)" font-family="sans-serif" stroke="none" xml:space="preserve"
      >n=0</text
    ></g
    ><g fill="rgb(0,255,0)" fill-opacity="0.4902" transform="translate(600,140)" stroke-opacity="0.4902" stroke="rgb(0,255,0)"
    ><ellipse rx="59.25" ry="19.25" clip-path="url(#clipPath3)" cx="59.75" cy="19.75" stroke="none"
    /></g
    ><g transform="translate(600,140)"
    ><ellipse rx="59.25" fill="none" ry="19.25" clip-path="url(#clipPath3)" cx="59.75" cy="19.75"
      /><text x="33" font-size="14px" y="25.0547" clip-path="url(#clipPath3)" font-family="sans-serif" stroke="none" xml:space="preserve"
      >начало</text
    ></g
    ><g transform="translate(650,730)"
    ><path fill="none" d="M10.5 49.5 L10.5 10.5" clip-path="url(#clipPath4)"
      /><path fill="none" d="M17 38.7417 L10.5 50 L4 38.7417" clip-path="url(#clipPath4)"
    /></g
    ><g transform="translate(700,630)"
    ><path fill="none" d="M11.5 90.5 L90.5 90.5" clip-path="url(#clipPath5)"
      /><path fill="none" d="M90.5 90.5 L90.5 10.5" clip-path="url(#clipPath5)"
      /><path fill="none" d="M90.5 10.5 L20.5 10.5" clip-path="url(#clipPath5)"
      /><path fill="none" d="M22.2583 97 L11 90.5 L22.2583 84" clip-path="url(#clipPath5)"
      /><text x="94" font-size="14px" y="58.0547" clip-path="url(#clipPath5)" font-family="sans-serif" stroke="none" xml:space="preserve"
      >нет</text
    ></g
    ><g transform="translate(390,290)"
    ><path fill="none" d="M209.5 10.5 L10.5 10.5" clip-path="url(#clipPath6)"
      /><path fill="none" d="M10.5 10.5 L10.5 350.5" clip-path="url(#clipPath6)"
      /><path fill="none" d="M10.5 350.5 L210.5 350.5" clip-path="url(#clipPath6)"
      /><path fill="none" d="M198.7417 4 L210 10.5 L198.7417 17" clip-path="url(#clipPath6)"
      /><text x="14" font-size="14px" y="188.0547" clip-path="url(#clipPath6)" font-family="sans-serif" stroke="none" xml:space="preserve"
      >да</text
    ></g
    ><g transform="translate(650,400)"
    ><path fill="none" d="M10.5 59.5 L10.5 10.5" clip-path="url(#clipPath7)"
      /><path fill="none" d="M17 48.7417 L10.5 60 L4 48.7417" clip-path="url(#clipPath7)"
    /></g
    ><g transform="translate(650,550)"
    ><path fill="none" d="M10.5 69.5 L10.5 10.5" clip-path="url(#clipPath8)"
      /><path fill="none" d="M10.5 10.5 L110.5 10.5" clip-path="url(#clipPath8)"
      /><path fill="none" d="M17 58.7417 L10.5 70 L4 58.7417" clip-path="url(#clipPath8)"
    /></g
    ><g transform="translate(550,550)"
    ><path fill="none" d="M110.5 69.5 L110.5 10.5" clip-path="url(#clipPath8)"
      /><path fill="none" d="M110.5 10.5 L10.5 10.5" clip-path="url(#clipPath8)"
      /><path fill="none" d="M117 58.7417 L110.5 70 L104 58.7417" clip-path="url(#clipPath8)"
    /></g
    ><g transform="translate(500,470)"
    ><path fill="none" d="M10.5 79.5 L10.5 10.5" clip-path="url(#clipPath9)"
      /><path fill="none" d="M10.5 10.5 L100.5 10.5" clip-path="url(#clipPath9)"
      /><path fill="none" d="M17 68.7417 L10.5 80 L4 68.7417" clip-path="url(#clipPath9)"
      /><text x="14" font-size="14px" y="53.0547" clip-path="url(#clipPath9)" font-family="sans-serif" stroke="none" xml:space="preserve"
      >да</text
    ></g
    ><g transform="translate(710,470)"
    ><path fill="none" d="M100.5 79.5 L100.5 10.5" clip-path="url(#clipPath10)"
      /><path fill="none" d="M100.5 10.5 L10.5 10.5" clip-path="url(#clipPath10)"
      /><path fill="none" d="M107 68.7417 L100.5 80 L94 68.7417" clip-path="url(#clipPath10)"
      /><text x="104" font-size="14px" y="53.0547" clip-path="url(#clipPath10)" font-family="sans-serif" stroke="none" xml:space="preserve"
      >нет</text
    ></g
    ><g transform="translate(710,290)"
    ><path fill="none" d="M11.5 510.5 L210.5 510.5" clip-path="url(#clipPath11)"
      /><path fill="none" d="M210.5 510.5 L210.5 10.5" clip-path="url(#clipPath11)"
      /><path fill="none" d="M210.5 10.5 L10.5 10.5" clip-path="url(#clipPath11)"
      /><path fill="none" d="M22.2583 517 L11 510.5 L22.2583 504" clip-path="url(#clipPath11)"
      /><text x="214" font-size="14px" y="268.0547" clip-path="url(#clipPath11)" font-family="sans-serif" stroke="none" xml:space="preserve"
      >да</text
    ></g
    ><g transform="translate(650,310)"
    ><path fill="none" d="M10.5 59.5 L10.5 10.5" clip-path="url(#clipPath12)"
      /><path fill="none" d="M17 48.7417 L10.5 60 L4 48.7417" clip-path="url(#clipPath12)"
      /><text x="14" font-size="14px" y="43.0547" clip-path="url(#clipPath12)" font-family="sans-serif" stroke="none" xml:space="preserve"
      >нет</text
    ></g
    ><g transform="translate(650,230)"
    ><path fill="none" d="M10.5 49.5 L10.5 10.5" clip-path="url(#clipPath4)"
      /><path fill="none" d="M17 38.7417 L10.5 50 L4 38.7417" clip-path="url(#clipPath4)"
    /></g
    ><g transform="translate(650,170)"
    ><path fill="none" d="M10.5 39.5 L10.5 10.5" clip-path="url(#clipPath13)"
      /><path fill="none" d="M17 28.7417 L10.5 40 L4 28.7417" clip-path="url(#clipPath13)"
    /></g
  ></g
></svg
>
